module gitlab.com/zenyukgo/jumbo/httpgateway

go 1.14

require (
	github.com/golang/protobuf v1.3.5
	github.com/gorilla/mux v1.7.4
	github.com/sirupsen/logrus v1.4.2
	google.golang.org/grpc v1.28.0
)
